part2/transcript
# vsim tb_part2_mac -c -do "run -all" 
# Start time: 01:47:14 on Sep 26,2017
# ** Note: (vsim-3813) Design is being optimized due to module recompilation...
# ** Warning: part2_tb.sv(103): (vopt-2240) Treating stand-alone use of function 'randomize' as an implicit VOID cast.
# //  ModelSim SE 10.4c Jul 19 2015 Linux 3.10.0-514.26.2.el7.x86_64
# //
# //  Copyright 1991-2015 Mentor Graphics Corporation
# //  All Rights Reserved.
# //
# //  THIS WORK CONTAINS TRADE SECRET AND PROPRIETARY INFORMATION
# //  WHICH IS THE PROPERTY OF MENTOR GRAPHICS CORPORATION OR ITS
# //  LICENSORS AND IS SUBJECT TO LICENSE TERMS.
# //  THIS DOCUMENT CONTAINS TRADE SECRETS AND COMMERCIAL OR FINANCIAL
# //  INFORMATION THAT ARE PRIVILEGED, CONFIDENTIAL, AND EXEMPT FROM
# //  DISCLOSURE UNDER THE FREEDOM OF INFORMATION ACT, 5 U.S.C. SECTION 552.
# //  FURTHERMORE, THIS INFORMATION IS PROHIBITED FROM DISCLOSURE UNDER
# //  THE TRADE SECRETS ACT, 18 U.S.C. SECTION 1905.
# //
# Loading sv_std.std
# Loading work.part2_tb_sv_unit(fast)
# Loading work.tb_part2_mac(fast)
# Loading work.part2_mac(fast)
# run -all
# Reseting DUT!
# Validation PASSED - idx:           0, a:  -83, b: -114, f:   9462, f_exp:   9462
# Validation PASSED - idx:           1, a:  -31, b:  -21, f:  10113, f_exp:  10113
# Validation PASSED - idx:           2, a: -104, b:  -28, f:  13025, f_exp:  13025
# Validation PASSED - idx:           3, a:   92, b:   16, f:  14497, f_exp:  14497
# Validation PASSED - idx:           4, a: -122, b:  119, f:    -21, f_exp:    -21
# Validation PASSED - idx:           5, a:   57, b:   81, f:   4596, f_exp:   4596
# Validation PASSED - idx:           6, a:   73, b:  -56, f:    508, f_exp:    508
# Validation PASSED - idx:           7, a:  -93, b:   96, f:  -8420, f_exp:  -8420
# Validation PASSED - idx:           8, a:  -49, b:   45, f: -10625, f_exp: -10625
# Validation PASSED - idx:           9, a:  -92, b:   73, f: -17341, f_exp: -17341
# Validation PASSED - idx:          10, a:  -78, b:  -22, f: -15625, f_exp: -15625
# Validation PASSED - idx:          11, a: -102, b: -112, f:  -4201, f_exp:  -4201
# Validation PASSED - idx:          12, a:   -2, b:  110, f:  -4421, f_exp:  -4421
# Validation PASSED - idx:          13, a:  -16, b:    3, f:  -4469, f_exp:  -4469
# Validation PASSED - idx:          14, a:   95, b:   83, f:   3416, f_exp:   3416
# Validation PASSED - idx:          15, a:   91, b:  101, f:  12607, f_exp:  12607
# Validation PASSED - idx:          16, a:   34, b:   58, f:  14579, f_exp:  14579
# Validation PASSED - idx:          17, a:  -36, b:   96, f:  11123, f_exp:  11123
# Validation PASSED - idx:          18, a:  -34, b:  -43, f:  12585, f_exp:  12585
# Validation PASSED - idx:          19, a:    0, b:  127, f:  12585, f_exp:  12585
# Validation PASSED - idx:          20, a:   40, b:   27, f:  13665, f_exp:  13665
# Validation PASSED - idx:          21, a:  126, b:  -86, f:   2829, f_exp:   2829
# Validation PASSED - idx:          22, a: -121, b:   93, f:  -8424, f_exp:  -8424
# Validation PASSED - idx:          23, a:   36, b:  124, f:  -3960, f_exp:  -3960
# Validation PASSED - idx:          24, a:   40, b:   59, f:  -1600, f_exp:  -1600
# Validation PASSED - idx:          25, a:  -24, b:   -2, f:  -1552, f_exp:  -1552
# Validation PASSED - idx:          26, a:  126, b: -119, f: -16546, f_exp: -16546
# Validation PASSED - idx:          27, a:  101, b:   59, f: -10587, f_exp: -10587
# Validation PASSED - idx:          28, a:    4, b:  -28, f: -10699, f_exp: -10699
# Validation PASSED - idx:          29, a:  -70, b:    8, f: -11259, f_exp: -11259
# Validation PASSED - idx:          30, a:  -13, b: -102, f:  -9933, f_exp:  -9933
# Validation PASSED - idx:          31, a:   31, b:   68, f:  -7825, f_exp:  -7825
# Validation PASSED - idx:          32, a:   79, b:  -54, f: -12091, f_exp: -12091
# Validation PASSED - idx:          33, a: -114, b:  -84, f:  -2515, f_exp:  -2515
# Validation PASSED - idx:          34, a:   75, b:    5, f:  -2140, f_exp:  -2140
# Validation PASSED - idx:          35, a:  -68, b:   66, f:  -6628, f_exp:  -6628
# Validation PASSED - idx:          36, a:   42, b:   23, f:  -5662, f_exp:  -5662
# Validation PASSED - idx:          37, a:  -70, b:  -68, f:   -902, f_exp:   -902
# Validation PASSED - idx:          38, a:    6, b: -111, f:  -1568, f_exp:  -1568
# Validation PASSED - idx:          39, a:   91, b:   -8, f:  -2296, f_exp:  -2296
# Validation PASSED - idx:          40, a:  121, b:  122, f:  12466, f_exp:  12466
# Validation PASSED - idx:          41, a:  102, b:   78, f:  20422, f_exp:  20422
# Validation PASSED - idx:          42, a:  -40, b:   36, f:  18982, f_exp:  18982
# Validation PASSED - idx:          43, a:  -76, b:   40, f:  15942, f_exp:  15942
# Validation PASSED - idx:          44, a:  -71, b: -103, f:  23255, f_exp:  23255
# Validation PASSED - idx:          45, a:   30, b:   63, f:  25145, f_exp:  25145
# Validation PASSED - idx:          46, a:   32, b:  105, f:  28505, f_exp:  28505
# Overflow Injected - idx:          49, a:   26, b:  106, f_prev:  32154
# Validation PASSED - idx:          47, a:  -66, b:  -11, f:  29231, f_exp:  29231
# Validation PASSED - idx:          48, a:  -37, b:  -79, f:  32154, f_exp:  32154
# Overflow Dectected By DUT!
# Reseting DUT!
# Validation PASSED - idx:           0, a:  -11, b:  100, f:  -1100, f_exp:  -1100
# Validation PASSED - idx:           1, a:  -95, b:  -58, f:   4410, f_exp:   4410
# Validation PASSED - idx:           2, a:  -97, b:   89, f:  -4223, f_exp:  -4223
# Validation PASSED - idx:           3, a:  -26, b:  -52, f:  -2871, f_exp:  -2871
# Validation PASSED - idx:           4, a:  -60, b:  120, f: -10071, f_exp: -10071
# Validation PASSED - idx:           5, a:  -27, b:  109, f: -13014, f_exp: -13014
# Validation PASSED - idx:           6, a:   70, b:  -52, f: -16654, f_exp: -16654
# Validation PASSED - idx:           7, a:  -23, b:   33, f: -17413, f_exp: -17413
# Validation PASSED - idx:           8, a:   92, b:   23, f: -15297, f_exp: -15297
# Validation PASSED - idx:           9, a:  -39, b:  -79, f: -12216, f_exp: -12216
# Validation PASSED - idx:          10, a:   55, b:  101, f:  -6661, f_exp:  -6661
# Validation PASSED - idx:          11, a:  -57, b:  -47, f:  -3982, f_exp:  -3982
# Validation PASSED - idx:          12, a:  -55, b:  116, f: -10362, f_exp: -10362
# Validation PASSED - idx:          13, a:   17, b:  -96, f: -11994, f_exp: -11994
# Validation PASSED - idx:          14, a:  127, b:  -29, f: -15677, f_exp: -15677
# Validation PASSED - idx:          15, a:   -1, b:  -77, f: -15600, f_exp: -15600
# Validation PASSED - idx:          16, a:   57, b:   69, f: -11667, f_exp: -11667
# Validation PASSED - idx:          17, a:  -12, b:   25, f: -11967, f_exp: -11967
# Validation PASSED - idx:          18, a:  -85, b:  109, f: -21232, f_exp: -21232
# Overflow Injected - idx:          21, a:  -85, b:  127, f_prev: -25162
# Validation PASSED - idx:          19, a:   -5, b:  -33, f: -21067, f_exp: -21067
# Validation PASSED - idx:          20, a:  117, b:  -35, f: -25162, f_exp: -25162
# Overflow Dectected By DUT!
# Reseting DUT!
# Validation PASSED - idx:           0, a:  117, b:  127, f:  14859, f_exp:  14859
# Validation PASSED - idx:           1, a:  -84, b:  -92, f:  22587, f_exp:  22587
# Validation PASSED - idx:           2, a: -116, b:  122, f:   8435, f_exp:   8435
# Validation PASSED - idx:           3, a:  -16, b: -113, f:  10243, f_exp:  10243
# Validation PASSED - idx:           4, a:  -15, b:   42, f:   9613, f_exp:   9613
# Validation PASSED - idx:           5, a:   77, b: -112, f:    989, f_exp:    989
# Validation PASSED - idx:           6, a:  -69, b:   19, f:   -322, f_exp:   -322
# Validation PASSED - idx:           7, a:   16, b:   30, f:    158, f_exp:    158
# Validation PASSED - idx:           8, a:   86, b:   16, f:   1534, f_exp:   1534
# Validation PASSED - idx:           9, a:   78, b:   -1, f:   1456, f_exp:   1456
# Validation PASSED - idx:          10, a: -105, b:   62, f:  -5054, f_exp:  -5054
# Validation PASSED - idx:          11, a:  -97, b: -119, f:   6489, f_exp:   6489
# Validation PASSED - idx:          12, a:  -92, b:  -64, f:  12377, f_exp:  12377
# Validation PASSED - idx:          13, a:  -90, b:  112, f:   2297, f_exp:   2297
# Validation PASSED - idx:          14, a:   71, b:    6, f:   2723, f_exp:   2723
# Validation PASSED - idx:          15, a: -127, b: -111, f:  16820, f_exp:  16820
# Overflow Injected - idx:          18, a:   14, b:   89, f_prev:  32139
# Validation PASSED - idx:          16, a:  -53, b:  -89, f:  21537, f_exp:  21537
# Validation PASSED - idx:          17, a:   93, b:  114, f:  32139, f_exp:  32139
# Overflow Dectected By DUT!
# Reseting DUT!
# Validation PASSED - idx:           0, a: -127, b:    2, f:   -254, f_exp:   -254
# Validation PASSED - idx:           1, a:  -28, b:  -39, f:    838, f_exp:    838
# Validation PASSED - idx:           2, a:  -36, b:   71, f:  -1718, f_exp:  -1718
# Validation PASSED - idx:           3, a:   67, b:   37, f:    761, f_exp:    761
# Validation PASSED - idx:           4, a:  -33, b:   79, f:  -1846, f_exp:  -1846
# Validation PASSED - idx:           5, a:   96, b: -128, f: -14134, f_exp: -14134
# Validation PASSED - idx:           6, a:   58, b:   78, f:  -9610, f_exp:  -9610
# Validation PASSED - idx:           7, a:  -88, b:   59, f: -14802, f_exp: -14802
# Validation PASSED - idx:           8, a:  101, b:  -65, f: -21367, f_exp: -21367
# Validation PASSED - idx:           9, a:   64, b: -101, f: -27831, f_exp: -27831
# Validation PASSED - idx:          10, a: -122, b:  -31, f: -24049, f_exp: -24049
# Overflow Injected - idx:          13, a:  -47, b:   56, f_prev: -30613
# Validation PASSED - idx:          11, a:   76, b:  -79, f: -30053, f_exp: -30053
# Validation PASSED - idx:          12, a:  -35, b:   16, f: -30613, f_exp: -30613
# Overflow Dectected By DUT!
# Reseting DUT!
# Validation PASSED - idx:           0, a:  -96, b:    3, f:   -288, f_exp:   -288
# Validation PASSED - idx:           1, a:   56, b:   47, f:   2344, f_exp:   2344
# Validation PASSED - idx:           2, a:  -75, b:   62, f:  -2306, f_exp:  -2306
# Validation PASSED - idx:           3, a:  -12, b:   75, f:  -3206, f_exp:  -3206
# Validation PASSED - idx:           4, a:   94, b:   50, f:   1494, f_exp:   1494
# Validation PASSED - idx:           5, a:  -73, b:  102, f:  -5952, f_exp:  -5952
# Validation PASSED - idx:           6, a:  118, b:   69, f:   2190, f_exp:   2190
# Validation PASSED - idx:           7, a:  -13, b:  -87, f:   3321, f_exp:   3321
# Validation PASSED - idx:           8, a:   16, b:  113, f:   5129, f_exp:   5129
# Validation PASSED - idx:           9, a:  -74, b:   87, f:  -1309, f_exp:  -1309
# Validation PASSED - idx:          10, a:   38, b:   12, f:   -853, f_exp:   -853
# Validation PASSED - idx:          11, a:  -10, b:  117, f:  -2023, f_exp:  -2023
# Validation PASSED - idx:          12, a:   40, b:   60, f:    377, f_exp:    377
# Validation PASSED - idx:          13, a:   44, b:  126, f:   5921, f_exp:   5921
# Validation PASSED - idx:          14, a:    6, b:   13, f:   5999, f_exp:   5999
# Validation PASSED - idx:          15, a:   17, b:  -37, f:   5370, f_exp:   5370
# Validation PASSED - idx:          16, a:  118, b:   54, f:  11742, f_exp:  11742
# Validation PASSED - idx:          17, a:   76, b:  -49, f:   8018, f_exp:   8018
# Validation PASSED - idx:          18, a:  -17, b:   29, f:   7525, f_exp:   7525
# Validation PASSED - idx:          19, a:  107, b:  123, f:  20686, f_exp:  20686
# Validation PASSED - idx:          20, a:  -18, b: -103, f:  22540, f_exp:  22540
# Validation PASSED - idx:          21, a:  106, b:   87, f:  31762, f_exp:  31762
# Validation PASSED - idx:          22, a:  -37, b:   56, f:  29690, f_exp:  29690
# Validation PASSED - idx:          23, a:   42, b:   71, f:  32672, f_exp:  32672
# Validation PASSED - idx:          24, a:  -46, b:  118, f:  27244, f_exp:  27244
# Overflow Injected - idx:          25, a:   65, b:   89, f_prev:  27244
# Overflow Dectected By DUT!
# Reseting DUT!
# Validation PASSED - idx:           0, a:   51, b:   18, f:    918, f_exp:    918
# Validation PASSED - idx:           1, a:   74, b:  -26, f:  -1006, f_exp:  -1006
# Validation PASSED - idx:           2, a:  124, b:  -26, f:  -4230, f_exp:  -4230
# Validation PASSED - idx:           3, a:   93, b:  113, f:   6279, f_exp:   6279
# Validation PASSED - idx:           4, a:  -16, b:   22, f:   5927, f_exp:   5927
# Validation PASSED - idx:           5, a:  -35, b:   70, f:   3477, f_exp:   3477
# Validation PASSED - idx:           6, a:  -12, b:    0, f:   3477, f_exp:   3477
# Validation PASSED - idx:           7, a:   52, b:   91, f:   8209, f_exp:   8209
# Validation PASSED - idx:           8, a:   59, b:   64, f:  11985, f_exp:  11985
# Validation PASSED - idx:           9, a:  -76, b:   95, f:   4765, f_exp:   4765
# Validation PASSED - idx:          10, a: -101, b:  -12, f:   5977, f_exp:   5977
# Validation PASSED - idx:          11, a:   17, b: -120, f:   3937, f_exp:   3937
# Validation PASSED - idx:          12, a:  -61, b:  -74, f:   8451, f_exp:   8451
# Validation PASSED - idx:          13, a:   25, b:   66, f:  10101, f_exp:  10101
# Validation PASSED - idx:          14, a:   60, b:   -7, f:   9681, f_exp:   9681
# Validation PASSED - idx:          15, a:   -8, b:  -99, f:  10473, f_exp:  10473
# Validation PASSED - idx:          16, a:  -76, b:    0, f:  10473, f_exp:  10473
# Validation PASSED - idx:          17, a:  -64, b:  102, f:   3945, f_exp:   3945
# Validation PASSED - idx:          18, a:  -63, b:  -11, f:   4638, f_exp:   4638
# Validation PASSED - idx:          19, a:  -61, b:   87, f:   -669, f_exp:   -669
# Validation PASSED - idx:          20, a:  -20, b:  -86, f:   1051, f_exp:   1051
# Validation PASSED - idx:          21, a:  -88, b: -121, f:  11699, f_exp:  11699
# Validation PASSED - idx:          22, a:   17, b:  -64, f:  10611, f_exp:  10611
# Validation PASSED - idx:          23, a:  -92, b:  115, f:     31, f_exp:     31
# Validation PASSED - idx:          24, a:  -68, b:   32, f:  -2145, f_exp:  -2145
# Validation PASSED - idx:          25, a:   97, b:  -55, f:  -7480, f_exp:  -7480
# Validation PASSED - idx:          26, a:  -43, b:  104, f: -11952, f_exp: -11952
# Validation PASSED - idx:          27, a:  -73, b:  -13, f: -11003, f_exp: -11003
# Validation PASSED - idx:          28, a:  -29, b:   97, f: -13816, f_exp: -13816
# Validation PASSED - idx:          29, a:   53, b:  -54, f: -16678, f_exp: -16678
# Validation PASSED - idx:          30, a:  -63, b:  107, f: -23419, f_exp: -23419
# Validation PASSED - idx:          31, a:  -87, b:   10, f: -24289, f_exp: -24289
# Validation PASSED - idx:          32, a:  -36, b:   50, f: -26089, f_exp: -26089
# Validation PASSED - idx:          33, a:  101, b:  123, f: -13666, f_exp: -13666
# Validation PASSED - idx:          34, a:   73, b: -106, f: -21404, f_exp: -21404
# Validation PASSED - idx:          35, a: -125, b: -125, f:  -5779, f_exp:  -5779
# Validation PASSED - idx:          36, a:  -71, b:  105, f: -13234, f_exp: -13234
# Validation PASSED - idx:          37, a:   11, b:    0, f: -13234, f_exp: -13234
# Validation PASSED - idx:          38, a:   22, b: -103, f: -15500, f_exp: -15500
# Validation PASSED - idx:          39, a: -121, b:  -27, f: -12233, f_exp: -12233
# Validation PASSED - idx:          40, a:  106, b:   24, f:  -9689, f_exp:  -9689
# Validation PASSED - idx:          41, a: -103, b:  120, f: -22049, f_exp: -22049
# Validation PASSED - idx:          42, a:  -75, b:   47, f: -25574, f_exp: -25574
# Validation PASSED - idx:          43, a: -122, b: -101, f: -13252, f_exp: -13252
# Validation PASSED - idx:          44, a: -101, b:   95, f: -22847, f_exp: -22847
# Validation PASSED - idx:          45, a:  -85, b:   10, f: -23697, f_exp: -23697
# Validation PASSED - idx:          46, a:  112, b:   69, f: -15969, f_exp: -15969
# Validation PASSED - idx:          47, a:  115, b:   15, f: -14244, f_exp: -14244
# Validation PASSED - idx:          48, a: -102, b:  -41, f: -10062, f_exp: -10062
# Validation PASSED - idx:          49, a:   40, b:   -8, f: -10382, f_exp: -10382
# Validation PASSED - idx:          50, a:   12, b:   76, f:  -9470, f_exp:  -9470
# Validation PASSED - idx:          51, a:   23, b:   36, f:  -8642, f_exp:  -8642
# Validation PASSED - idx:          52, a:    5, b:  -84, f:  -9062, f_exp:  -9062
# Validation PASSED - idx:          53, a:   84, b:   28, f:  -6710, f_exp:  -6710
# Validation PASSED - idx:          54, a:   91, b:   84, f:    934, f_exp:    934
# Validation PASSED - idx:          55, a:   39, b:  -35, f:   -431, f_exp:   -431
# Validation PASSED - idx:          56, a:  -42, b:  -76, f:   2761, f_exp:   2761
# Validation PASSED - idx:          57, a:   24, b:   29, f:   3457, f_exp:   3457
# Validation PASSED - idx:          58, a:  -90, b:  -88, f:  11377, f_exp:  11377
# Validation PASSED - idx:          59, a:   85, b:   72, f:  17497, f_exp:  17497
# Validation PASSED - idx:          60, a: -102, b:  -13, f:  18823, f_exp:  18823
# Validation PASSED - idx:          61, a:   63, b:  -57, f:  15232, f_exp:  15232
# Validation PASSED - idx:          62, a:  -23, b:   24, f:  14680, f_exp:  14680
# Validation PASSED - idx:          63, a:   31, b:  -68, f:  12572, f_exp:  12572
# Validation PASSED - idx:          64, a:  -51, b: -110, f:  18182, f_exp:  18182
# Validation PASSED - idx:          65, a:  -47, b:   62, f:  15268, f_exp:  15268
# Validation PASSED - idx:          66, a:   88, b:  -45, f:  11308, f_exp:  11308
# Validation PASSED - idx:          67, a: -116, b:   13, f:   9800, f_exp:   9800
# Validation PASSED - idx:          68, a:   46, b:   39, f:  11594, f_exp:  11594
# Validation PASSED - idx:          69, a:  115, b:  -47, f:   6189, f_exp:   6189
# Validation PASSED - idx:          70, a:  -45, b:  109, f:   1284, f_exp:   1284
# Validation PASSED - idx:          71, a:   44, b:   88, f:   5156, f_exp:   5156
# Validation PASSED - idx:          72, a: -122, b:  -12, f:   6620, f_exp:   6620
# Validation PASSED - idx:          73, a:  -11, b:   -3, f:   6653, f_exp:   6653
# Validation PASSED - idx:          74, a:   25, b:  122, f:   9703, f_exp:   9703
# Validation PASSED - idx:          75, a:  104, b: -121, f:  -2881, f_exp:  -2881
# Validation PASSED - idx:          76, a:   44, b: -119, f:  -8117, f_exp:  -8117
# Validation PASSED - idx:          77, a:  117, b:    1, f:  -8000, f_exp:  -8000
# Validation PASSED - idx:          78, a:   31, b:    7, f:  -7783, f_exp:  -7783
# Validation PASSED - idx:          79, a:  -97, b:   59, f: -13506, f_exp: -13506
# Validation PASSED - idx:          80, a:   35, b:  -87, f: -16551, f_exp: -16551
# Validation PASSED - idx:          81, a:   68, b:  -35, f: -18931, f_exp: -18931
# Validation PASSED - idx:          82, a:  -18, b:  -41, f: -18193, f_exp: -18193
# Validation PASSED - idx:          83, a: -111, b:  -16, f: -16417, f_exp: -16417
# Validation PASSED - idx:          84, a:  -98, b: -105, f:  -6127, f_exp:  -6127
# Validation PASSED - idx:          85, a:  -94, b:  -85, f:   1863, f_exp:   1863
# Validation PASSED - idx:          86, a: -115, b:   35, f:  -2162, f_exp:  -2162
# Validation PASSED - idx:          87, a:  121, b:  -98, f: -14020, f_exp: -14020
# Validation PASSED - idx:          88, a:  -72, b:  -60, f:  -9700, f_exp:  -9700
# Validation PASSED - idx:          89, a:   98, b:  -87, f: -18226, f_exp: -18226
# Validation PASSED - idx:          90, a:   31, b:  -83, f: -20799, f_exp: -20799
# Validation PASSED - idx:          91, a:   80, b:  126, f: -10719, f_exp: -10719
# Validation PASSED - idx:          92, a:  107, b:  -55, f: -16604, f_exp: -16604
# Validation PASSED - idx:          93, a:   41, b:  -95, f: -20499, f_exp: -20499
# Validation PASSED - idx:          94, a:   92, b:  120, f:  -9459, f_exp:  -9459
# Validation PASSED - idx:          95, a:   -5, b:   73, f:  -9824, f_exp:  -9824
# Validation PASSED - idx:          96, a:    6, b:  -61, f: -10190, f_exp: -10190
# Validation PASSED - idx:          97, a:  101, b:  -93, f: -19583, f_exp: -19583
# Validation PASSED - idx:          98, a:   29, b:  -29, f: -20424, f_exp: -20424
# Validation PASSED - idx:          99, a:  -72, b:   16, f: -21576, f_exp: -21576
# Validation PASSED - idx:         100, a:  -49, b:   71, f: -25055, f_exp: -25055
# Validation PASSED - idx:         101, a:  -26, b:   79, f: -27109, f_exp: -27109
# Validation PASSED - idx:         102, a:   58, b:  -90, f: -32329, f_exp: -32329
# Validation PASSED - idx:         103, a:   37, b:   52, f: -30405, f_exp: -30405
# Validation PASSED - idx:         104, a:  -28, b:   70, f: -32365, f_exp: -32365
# Validation PASSED - idx:         105, a:   27, b:  112, f: -29341, f_exp: -29341
# Validation PASSED - idx:         106, a:   57, b:    6, f: -28999, f_exp: -28999
# Validation PASSED - idx:         107, a:  -10, b:   93, f: -29929, f_exp: -29929
# Overflow Injected - idx:         108, a:  112, b:  -61, f_prev: -29929
# Overflow Dectected By DUT!
# Reseting DUT!
# Validation PASSED - idx:           0, a:  -87, b:  -93, f:   8091, f_exp:   8091
# Validation PASSED - idx:           1, a:   21, b:  -88, f:   6243, f_exp:   6243
# Validation PASSED - idx:           2, a:   65, b: -105, f:   -582, f_exp:   -582
# Validation PASSED - idx:           3, a:  -52, b:  -55, f:   2278, f_exp:   2278
# Validation PASSED - idx:           4, a:  -66, b:  -32, f:   4390, f_exp:   4390
# Validation PASSED - idx:           5, a:  -76, b:    3, f:   4162, f_exp:   4162
# Validation PASSED - idx:           6, a:   64, b:   89, f:   9858, f_exp:   9858
# Validation PASSED - idx:           7, a:   29, b:   17, f:  10351, f_exp:  10351
# Validation PASSED - idx:           8, a: -107, b:  124, f:  -2917, f_exp:  -2917
# Validation PASSED - idx:           9, a:  -78, b: -120, f:   6443, f_exp:   6443
# Validation PASSED - idx:          10, a:   90, b:  -19, f:   4733, f_exp:   4733
# Validation PASSED - idx:          11, a:  -35, b:   99, f:   1268, f_exp:   1268
# Validation PASSED - idx:          12, a:   24, b:  113, f:   3980, f_exp:   3980
# Validation PASSED - idx:          13, a:    7, b: -105, f:   3245, f_exp:   3245
# Validation PASSED - idx:          14, a: -110, b:  -56, f:   9405, f_exp:   9405
# Validation PASSED - idx:          15, a:   17, b:  -16, f:   9133, f_exp:   9133
# Validation PASSED - idx:          16, a:   40, b:    7, f:   9413, f_exp:   9413
# Validation PASSED - idx:          17, a:   38, b:  113, f:  13707, f_exp:  13707
# Validation PASSED - idx:          18, a:  111, b:  -44, f:   8823, f_exp:   8823
# Validation PASSED - idx:          19, a:  122, b:   59, f:  16021, f_exp:  16021
# Validation PASSED - idx:          20, a:  123, b:   47, f:  21802, f_exp:  21802
# Validation PASSED - idx:          21, a:   65, b:  103, f:  28497, f_exp:  28497
# Validation PASSED - idx:          22, a: -100, b:   56, f:  22897, f_exp:  22897
# Validation PASSED - idx:          23, a:  100, b:    7, f:  23597, f_exp:  23597
# Validation PASSED - idx:          24, a:   46, b:   94, f:  27921, f_exp:  27921
# Validation PASSED - idx:          25, a:   -1, b:   17, f:  27904, f_exp:  27904
# Validation PASSED - idx:          26, a:  -22, b:   69, f:  26386, f_exp:  26386
# Validation PASSED - idx:          27, a:  101, b: -105, f:  15781, f_exp:  15781
# Validation PASSED - idx:          28, a:   48, b: -125, f:   9781, f_exp:   9781
# Validation PASSED - idx:          29, a:   70, b:    1, f:   9851, f_exp:   9851
# Validation PASSED - idx:          30, a:  -98, b:   35, f:   6421, f_exp:   6421
# Validation PASSED - idx:          31, a:  -96, b:   -8, f:   7189, f_exp:   7189
# Validation PASSED - idx:          32, a:   -9, b:   -4, f:   7225, f_exp:   7225
# Validation PASSED - idx:          33, a:  -89, b:  -75, f:  13900, f_exp:  13900
# Validation PASSED - idx:          34, a:   61, b:   85, f:  19085, f_exp:  19085
# Validation PASSED - idx:          35, a:   86, b:   88, f:  26653, f_exp:  26653
# Validation PASSED - idx:          36, a:  -31, b:   75, f:  24328, f_exp:  24328
# Validation PASSED - idx:          37, a:  -20, b:   94, f:  22448, f_exp:  22448
# Validation PASSED - idx:          38, a:   98, b:  -87, f:  13922, f_exp:  13922
# Validation PASSED - idx:          39, a:  -27, b:  -80, f:  16082, f_exp:  16082
# Validation PASSED - idx:          40, a: -113, b:  -84, f:  25574, f_exp:  25574
# Validation PASSED - idx:          41, a:   75, b:  -72, f:  20174, f_exp:  20174
# Validation PASSED - idx:          42, a:    6, b:  -50, f:  19874, f_exp:  19874
# Validation PASSED - idx:          43, a:   14, b:  -75, f:  18824, f_exp:  18824
# Validation PASSED - idx:          44, a:   95, b:  -18, f:  17114, f_exp:  17114
# Validation PASSED - idx:          45, a:  109, b:  -53, f:  11337, f_exp:  11337
# Validation PASSED - idx:          46, a:  111, b:   39, f:  15666, f_exp:  15666
# Validation PASSED - idx:          47, a:   41, b:  -22, f:  14764, f_exp:  14764
# Validation PASSED - idx:          48, a:  -11, b:   32, f:  14412, f_exp:  14412
# Validation PASSED - idx:          49, a:  104, b:  105, f:  25332, f_exp:  25332
# Overflow Injected - idx:          50, a:  116, b:   87, f_prev:  25332
# Overflow Dectected By DUT!
# Reseting DUT!
# Validation PASSED - idx:           0, a:    9, b:  -97, f:   -873, f_exp:   -873
# Validation PASSED - idx:           1, a:  -23, b:  105, f:  -3288, f_exp:  -3288
# Validation PASSED - idx:           2, a:    9, b:  -86, f:  -4062, f_exp:  -4062
# Validation PASSED - idx:           3, a:  -13, b: -116, f:  -2554, f_exp:  -2554
# Validation PASSED - idx:           4, a:   -9, b:   87, f:  -3337, f_exp:  -3337
# Validation PASSED - idx:           5, a:  -77, b: -101, f:   4440, f_exp:   4440
# Validation PASSED - idx:           6, a:  -63, b:  108, f:  -2364, f_exp:  -2364
# Validation PASSED - idx:           7, a:   64, b:   43, f:    388, f_exp:    388
# Validation PASSED - idx:           8, a:   74, b:  -25, f:  -1462, f_exp:  -1462
# Validation PASSED - idx:           9, a:  123, b:  -28, f:  -4906, f_exp:  -4906
# Validation PASSED - idx:          10, a:   75, b:  -78, f: -10756, f_exp: -10756
# Validation PASSED - idx:          11, a:  -54, b:  -71, f:  -6922, f_exp:  -6922
# Validation PASSED - idx:          12, a:  -78, b: -124, f:   2750, f_exp:   2750
# Validation PASSED - idx:          13, a:  -51, b: -115, f:   8615, f_exp:   8615
# Validation PASSED - idx:          14, a:  121, b:  -36, f:   4259, f_exp:   4259
# Validation PASSED - idx:          15, a:    1, b:  -92, f:   4167, f_exp:   4167
# Validation PASSED - idx:          16, a: -106, b: -114, f:  16251, f_exp:  16251
# Validation PASSED - idx:          17, a:    9, b:  -93, f:  15414, f_exp:  15414
# Validation PASSED - idx:          18, a:  -86, b:  105, f:   6384, f_exp:   6384
# Validation PASSED - idx:          19, a:   48, b:  -60, f:   3504, f_exp:   3504
# Validation PASSED - idx:          20, a:   68, b:  -42, f:    648, f_exp:    648
# Validation PASSED - idx:          21, a:  105, b: -114, f: -11322, f_exp: -11322
# Validation PASSED - idx:          22, a:  115, b:   84, f:  -1662, f_exp:  -1662
# Validation PASSED - idx:          23, a:    0, b:   81, f:  -1662, f_exp:  -1662
# Validation PASSED - idx:          24, a:  -21, b:  110, f:  -3972, f_exp:  -3972
# Validation PASSED - idx:          25, a:   35, b:  -34, f:  -5162, f_exp:  -5162
# Validation PASSED - idx:          26, a:   84, b: -105, f: -13982, f_exp: -13982
# Validation PASSED - idx:          27, a:  -15, b: -108, f: -12362, f_exp: -12362
# Validation PASSED - idx:          28, a: -108, b:    1, f: -12470, f_exp: -12470
# Validation PASSED - idx:          29, a:   21, b:  -39, f: -13289, f_exp: -13289
# Validation PASSED - idx:          30, a:  -49, b:   -4, f: -13093, f_exp: -13093
# Validation PASSED - idx:          31, a:   82, b:   62, f:  -8009, f_exp:  -8009
# Validation PASSED - idx:          32, a:  -70, b:   -8, f:  -7449, f_exp:  -7449
# Validation PASSED - idx:          33, a:   89, b:   -2, f:  -7627, f_exp:  -7627
# Validation PASSED - idx:          34, a:  -77, b: -117, f:   1382, f_exp:   1382
# Validation PASSED - idx:          35, a:  -65, b:   49, f:  -1803, f_exp:  -1803
# Validation PASSED - idx:          36, a: -115, b:  -79, f:   7282, f_exp:   7282
# Validation PASSED - idx:          37, a:   35, b:   93, f:  10537, f_exp:  10537
# Validation PASSED - idx:          38, a:    2, b:   32, f:  10601, f_exp:  10601
# Validation PASSED - idx:          39, a:   91, b:  104, f:  20065, f_exp:  20065
# Validation PASSED - idx:          40, a:   97, b:  -26, f:  17543, f_exp:  17543
# Validation PASSED - idx:          41, a:   89, b:  -64, f:  11847, f_exp:  11847
# Validation PASSED - idx:          42, a:  -54, b:   52, f:   9039, f_exp:   9039
# Validation PASSED - idx:          43, a: -117, b:   58, f:   2253, f_exp:   2253
# Validation PASSED - idx:          44, a:   62, b:  -53, f:  -1033, f_exp:  -1033
# Validation PASSED - idx:          45, a:   80, b:   14, f:     87, f_exp:     87
# Validation PASSED - idx:          46, a:   42, b:   22, f:   1011, f_exp:   1011
# Validation PASSED - idx:          47, a:   67, b: -116, f:  -6761, f_exp:  -6761
# Validation PASSED - idx:          48, a: -115, b:   86, f: -16651, f_exp: -16651
# Validation PASSED - idx:          49, a:   44, b: -112, f: -21579, f_exp: -21579
# Validation PASSED - idx:          50, a:  120, b:  -79, f: -31059, f_exp: -31059
# Validation PASSED - idx:          51, a:  -34, b:  -68, f: -28747, f_exp: -28747
# Validation PASSED - idx:          52, a:   -8, b:  113, f: -29651, f_exp: -29651
# Validation PASSED - idx:          53, a:  -27, b: -110, f: -26681, f_exp: -26681
